[
    {
      "q1": "I want a website or app that will change how we do business"
    },
    {
        "q2": "I need to Transform an idea to a product"
    },
    {
      "q3": "I want to give the best experience to my visitors to increase conversions"
    },
    {
      "q4": "I want to leverage latest tech"
    },
    {
      "q5": "I want to add a bit of pep and improve my operations"
    },
   {
    "q6": "I am looking to save some bucks"
   },
   {
    "q7": "I am just here to explore"
   }
] 